<svg width="39" height="40" viewBox="0 0 39 40" fill="none" xmlns="http://www.w3.org/2000/svg">
<rect x="0.75" y="0.75" width="37.5" height="38.5" rx="17.25" fill="#202020" fill-opacity="0.32"/>
<rect x="0.75" y="0.75" width="37.5" height="38.5" rx="17.25" stroke="#202020" stroke-width="1.5"/>
<path fill-rule="evenodd" clip-rule="evenodd" d="M25.3272 25.5433C24.5652 23.1336 22.5177 21.7528 19.7074 21.7528H19.6872C16.8695 21.7371 14.8115 23.1276 14.048 25.5433L13.9595 25.8238L14.21 25.9768C15.6785 26.8723 17.51 27.3261 19.6519 27.3261C19.6759 27.3261 19.6999 27.3261 19.7232 27.3261C21.8952 27.3261 23.6757 26.8843 25.1652 25.9768L25.4157 25.8238L25.3272 25.5433Z" fill="#202020"/>
<path fill-rule="evenodd" clip-rule="evenodd" d="M19.6877 20.0817C21.7299 20.0817 23.3919 18.4205 23.3919 16.3782C23.3919 14.3352 21.7299 12.674 19.6877 12.674C17.6454 12.674 15.9841 14.3352 15.9841 16.3782C15.9841 18.4205 17.6454 20.0817 19.6877 20.0817Z" fill="#202020"/>
</svg>
